<?xml version="1.0" encoding="UTF-8"?>
<svg xmlns="http://www.w3.org/2000/svg" class="svg-icon" viewBox="0 0 20 20" fill="#999999">
<path d="m18 16.6-3.1-3.1c0.5-0.7 0.9-1.5 1-2.5h-2.1c-0.4 1.7-2 3-3.9 3-0.8 0-1.6-0.3-2.3-0.7l2.4-2.3h-6v6l2.3-2.3c1 0.8 2.3 1.3 3.7 1.3 1.3 0 2.5-0.4 3.5-1.1l3.1 3.1 1.4-1.4z"/>
<path d="m10 6c0.8 0 1.6 0.3 2.3 0.7l-2.3 2.3h6v-6l-2.3 2.3c-1-0.8-2.3-1.3-3.7-1.3-3 0-5.4 2.2-5.9 5h2.1c0.4-1.7 1.9-3 3.8-3z"/>
</svg>
